<?xml version="1.0" encoding="utf-8"?>
<!-- Generator: Adobe Illustrator 19.2.0, SVG Export Plug-In . SVG Version: 6.00 Build 0)  -->
<svg version="1.1" id="Ebene_1" xmlns="http://www.w3.org/2000/svg" xmlns:xlink="http://www.w3.org/1999/xlink" x="0px" y="0px"
	 viewBox="0 0 60 60" style="enable-background:new 0 0 60 60;" xml:space="preserve">
<style type="text/css">
	.st0{fill:#014587;}
</style>
<g>
	<path class="st0" d="M43.8,59c-0.7-0.1-2-0.1-3.1-0.4C20.8,52.1,7.4,39,1.2,18.9c-2-6.6,1.3-11.5,5.7-15.7c3.3-3.1,6.7-2.3,9,1.7
		c1,1.8,0.4,0.7,1,1.8c2.4,4.3,3.2,11.1-1.9,14c-3.4,1.9-3.5,4.8-1.1,8c4.7,6.4,10.3,11.9,16.6,16.7c3.5,2.7,6.7,2.6,8.9-1.3
		c2.6-4.5,6-4.6,8.6-3.7c2.1,0.8,11.1,2.8,9.9,9.8C57.2,54.4,49.5,59.1,43.8,59z"/>
</g>
</svg>
